<?xml version="1.0" encoding="UTF-8"?>
<!DOCTYPE svg PUBLIC "-//W3C//DTD SVG 1.1//EN" "http://www.w3.org/Graphics/SVG/1.1/DTD/svg11.dtd">
<svg version="1.2" width="10.02mm" height="10.02mm" viewBox="15001 12001 1002 1002" preserveAspectRatio="xMidYMid" fill-rule="evenodd" stroke-width="28.222" stroke-linejoin="round" xmlns="http://www.w3.org/2000/svg" xmlns:ooo="http://xml.openoffice.org/svg/export" xmlns:xlink="http://www.w3.org/1999/xlink" xmlns:presentation="http://sun.com/xmlns/staroffice/presentation" xmlns:smil="http://www.w3.org/2001/SMIL20/" xmlns:anim="urn:oasis:names:tc:opendocument:xmlns:animation:1.0" xml:space="preserve">
 <defs class="EmbeddedBulletChars">
  <g id="bullet-char-template-57356" transform="scale(0.00048828125,-0.00048828125)">
   <path d="M 580,1141 L 1163,571 580,0 -4,571 580,1141 Z"/>
  </g>
  <g id="bullet-char-template-57354" transform="scale(0.00048828125,-0.00048828125)">
   <path d="M 8,1128 L 1137,1128 1137,0 8,0 8,1128 Z"/>
  </g>
  <g id="bullet-char-template-10146" transform="scale(0.00048828125,-0.00048828125)">
   <path d="M 174,0 L 602,739 174,1481 1456,739 174,0 Z M 1358,739 L 309,1346 659,739 1358,739 Z"/>
  </g>
  <g id="bullet-char-template-10132" transform="scale(0.00048828125,-0.00048828125)">
   <path d="M 2015,739 L 1276,0 717,0 1260,543 174,543 174,936 1260,936 717,1481 1274,1481 2015,739 Z"/>
  </g>
  <g id="bullet-char-template-10007" transform="scale(0.00048828125,-0.00048828125)">
   <path d="M 0,-2 C -7,14 -16,27 -25,37 L 356,567 C 262,823 215,952 215,954 215,979 228,992 255,992 264,992 276,990 289,987 310,991 331,999 354,1012 L 381,999 492,748 772,1049 836,1024 860,1049 C 881,1039 901,1025 922,1006 886,937 835,863 770,784 769,783 710,716 594,584 L 774,223 C 774,196 753,168 711,139 L 727,119 C 717,90 699,76 672,76 641,76 570,178 457,381 L 164,-76 C 142,-110 111,-127 72,-127 30,-127 9,-110 8,-76 1,-67 -2,-52 -2,-32 -2,-23 -1,-13 0,-2 Z"/>
  </g>
  <g id="bullet-char-template-10004" transform="scale(0.00048828125,-0.00048828125)">
   <path d="M 285,-33 C 182,-33 111,30 74,156 52,228 41,333 41,471 41,549 55,616 82,672 116,743 169,778 240,778 293,778 328,747 346,684 L 369,508 C 377,444 397,411 428,410 L 1163,1116 C 1174,1127 1196,1133 1229,1133 1271,1133 1292,1118 1292,1087 L 1292,965 C 1292,929 1282,901 1262,881 L 442,47 C 390,-6 338,-33 285,-33 Z"/>
  </g>
  <g id="bullet-char-template-9679" transform="scale(0.00048828125,-0.00048828125)">
   <path d="M 813,0 C 632,0 489,54 383,161 276,268 223,411 223,592 223,773 276,916 383,1023 489,1130 632,1184 813,1184 992,1184 1136,1130 1245,1023 1353,916 1407,772 1407,592 1407,412 1353,268 1245,161 1136,54 992,0 813,0 Z"/>
  </g>
  <g id="bullet-char-template-8226" transform="scale(0.00048828125,-0.00048828125)">
   <path d="M 346,457 C 273,457 209,483 155,535 101,586 74,649 74,723 74,796 101,859 155,911 209,963 273,989 346,989 419,989 480,963 531,910 582,859 608,796 608,723 608,648 583,586 532,535 482,483 420,457 346,457 Z"/>
  </g>
  <g id="bullet-char-template-8211" transform="scale(0.00048828125,-0.00048828125)">
   <path d="M -4,459 L 1135,459 1135,606 -4,606 -4,459 Z"/>
  </g>
  <g id="bullet-char-template-61548" transform="scale(0.00048828125,-0.00048828125)">
   <path d="M 173,740 C 173,903 231,1043 346,1159 462,1274 601,1332 765,1332 928,1332 1067,1274 1183,1159 1299,1043 1357,903 1357,740 1357,577 1299,437 1183,322 1067,206 928,148 765,148 601,148 462,206 346,322 231,437 173,577 173,740 Z"/>
  </g>
 </defs>
 <g class="Page">
  <g class="com.sun.star.drawing.CustomShape">
   <g id="id3">
    <rect class="BoundingBox" stroke="none" fill="none" x="15001" y="12001" width="1002" height="1002"/>
    <path fill="rgb(28,28,28)" stroke="none" d="M 16002,12502 C 16002,12589 15979,12676 15935,12752 15891,12828 15828,12891 15752,12935 15676,12979 15589,13002 15502,13002 15414,13002 15327,12979 15251,12935 15175,12891 15112,12828 15068,12752 15024,12676 15001,12589 15001,12502 15001,12414 15024,12327 15068,12251 15112,12175 15175,12112 15251,12068 15327,12024 15414,12001 15502,12001 15589,12001 15676,12024 15752,12068 15828,12112 15891,12175 15935,12251 15979,12327 16002,12414 16002,12502 L 16002,12502 Z"/>
   </g>
  </g>
  <g class="com.sun.star.drawing.CustomShape">
   <g id="id4">
    <rect class="BoundingBox" stroke="none" fill="none" x="15200" y="12200" width="601" height="601"/>
   </g>
  </g>
  <g class="com.sun.star.drawing.CustomShape">
   <g id="id5">
    <rect class="BoundingBox" stroke="none" fill="none" x="15409" y="12236" width="182" height="152"/>
    <path fill="rgb(250,250,250)" stroke="none" d="M 15434,12236 L 15434,12236 C 15430,12236 15425,12237 15422,12239 15418,12242 15415,12245 15412,12249 15410,12252 15409,12257 15409,12261 L 15409,12361 15409,12362 C 15409,12366 15410,12371 15412,12374 15415,12378 15418,12381 15422,12384 15425,12386 15430,12387 15434,12387 L 15564,12387 15565,12387 C 15569,12387 15574,12386 15577,12384 15581,12381 15584,12378 15587,12374 15589,12371 15590,12366 15590,12362 L 15589,12261 15590,12261 15590,12261 C 15590,12257 15589,12252 15587,12249 15584,12245 15581,12242 15577,12239 15574,12237 15569,12236 15565,12236 L 15434,12236 Z"/>
   </g>
  </g>
  <g class="Group">
   <g class="com.sun.star.drawing.CustomShape">
    <g id="id6">
     <rect class="BoundingBox" stroke="none" fill="none" x="15242" y="12248" width="175" height="25"/>
     <path fill="rgb(250,250,250)" stroke="none" d="M 15329,12272 L 15242,12272 15242,12248 15416,12248 15416,12272 15329,12272 Z"/>
    </g>
   </g>
   <g class="com.sun.star.drawing.CustomShape">
    <g id="id7">
     <rect class="BoundingBox" stroke="none" fill="none" x="15242" y="12344" width="175" height="25"/>
     <path fill="rgb(250,250,250)" stroke="none" d="M 15329,12368 L 15242,12368 15242,12344 15416,12344 15416,12368 15329,12368 Z"/>
    </g>
   </g>
   <g class="com.sun.star.drawing.CustomShape">
    <g id="id8">
     <rect class="BoundingBox" stroke="none" fill="none" x="15242" y="12248" width="25" height="121"/>
     <path fill="rgb(250,250,250)" stroke="none" d="M 15254,12368 L 15242,12368 15242,12248 15266,12248 15266,12368 15254,12368 Z"/>
    </g>
   </g>
   <g class="com.sun.star.drawing.CustomShape">
    <g id="id9">
     <rect class="BoundingBox" stroke="none" fill="none" x="15392" y="12248" width="25" height="121"/>
     <path fill="rgb(250,250,250)" stroke="none" d="M 15404,12368 L 15392,12368 15392,12248 15416,12248 15416,12368 15404,12368 Z"/>
    </g>
   </g>
  </g>
  <g class="Group">
   <g class="com.sun.star.drawing.CustomShape">
    <g id="id10">
     <rect class="BoundingBox" stroke="none" fill="none" x="15584" y="12248" width="175" height="25"/>
     <path fill="rgb(250,250,250)" stroke="none" d="M 15671,12272 L 15584,12272 15584,12248 15758,12248 15758,12272 15671,12272 Z"/>
    </g>
   </g>
   <g class="com.sun.star.drawing.CustomShape">
    <g id="id11">
     <rect class="BoundingBox" stroke="none" fill="none" x="15584" y="12344" width="175" height="25"/>
     <path fill="rgb(250,250,250)" stroke="none" d="M 15671,12368 L 15584,12368 15584,12344 15758,12344 15758,12368 15671,12368 Z"/>
    </g>
   </g>
   <g class="com.sun.star.drawing.CustomShape">
    <g id="id12">
     <rect class="BoundingBox" stroke="none" fill="none" x="15584" y="12248" width="25" height="121"/>
     <path fill="rgb(250,250,250)" stroke="none" d="M 15596,12368 L 15584,12368 15584,12248 15608,12248 15608,12368 15596,12368 Z"/>
    </g>
   </g>
   <g class="com.sun.star.drawing.CustomShape">
    <g id="id13">
     <rect class="BoundingBox" stroke="none" fill="none" x="15734" y="12248" width="25" height="121"/>
     <path fill="rgb(250,250,250)" stroke="none" d="M 15746,12368 L 15734,12368 15734,12248 15758,12248 15758,12368 15746,12368 Z"/>
    </g>
   </g>
  </g>
  <g class="com.sun.star.drawing.CustomShape">
   <g id="id14">
    <rect class="BoundingBox" stroke="none" fill="none" x="15409" y="12398" width="182" height="152"/>
    <path fill="rgb(250,250,250)" stroke="none" d="M 15434,12398 L 15434,12398 C 15430,12398 15425,12399 15422,12401 15418,12404 15415,12407 15412,12411 15410,12414 15409,12419 15409,12423 L 15409,12523 15409,12524 C 15409,12528 15410,12533 15412,12536 15415,12540 15418,12543 15422,12546 15425,12548 15430,12549 15434,12549 L 15564,12549 15565,12549 C 15569,12549 15574,12548 15577,12546 15581,12543 15584,12540 15587,12536 15589,12533 15590,12528 15590,12524 L 15589,12423 15590,12423 15590,12423 C 15590,12419 15589,12414 15587,12411 15584,12407 15581,12404 15577,12401 15574,12399 15569,12398 15565,12398 L 15434,12398 Z"/>
   </g>
  </g>
  <g class="Group">
   <g class="com.sun.star.drawing.CustomShape">
    <g id="id15">
     <rect class="BoundingBox" stroke="none" fill="none" x="15242" y="12410" width="175" height="25"/>
     <path fill="rgb(250,250,250)" stroke="none" d="M 15329,12434 L 15242,12434 15242,12410 15416,12410 15416,12434 15329,12434 Z"/>
    </g>
   </g>
   <g class="com.sun.star.drawing.CustomShape">
    <g id="id16">
     <rect class="BoundingBox" stroke="none" fill="none" x="15242" y="12506" width="175" height="25"/>
     <path fill="rgb(250,250,250)" stroke="none" d="M 15329,12530 L 15242,12530 15242,12506 15416,12506 15416,12530 15329,12530 Z"/>
    </g>
   </g>
   <g class="com.sun.star.drawing.CustomShape">
    <g id="id17">
     <rect class="BoundingBox" stroke="none" fill="none" x="15242" y="12410" width="25" height="121"/>
     <path fill="rgb(250,250,250)" stroke="none" d="M 15254,12530 L 15242,12530 15242,12410 15266,12410 15266,12530 15254,12530 Z"/>
    </g>
   </g>
   <g class="com.sun.star.drawing.CustomShape">
    <g id="id18">
     <rect class="BoundingBox" stroke="none" fill="none" x="15392" y="12410" width="25" height="121"/>
     <path fill="rgb(250,250,250)" stroke="none" d="M 15404,12530 L 15392,12530 15392,12410 15416,12410 15416,12530 15404,12530 Z"/>
    </g>
   </g>
  </g>
  <g class="Group">
   <g class="com.sun.star.drawing.CustomShape">
    <g id="id19">
     <rect class="BoundingBox" stroke="none" fill="none" x="15584" y="12410" width="175" height="25"/>
     <path fill="rgb(250,250,250)" stroke="none" d="M 15671,12434 L 15584,12434 15584,12410 15758,12410 15758,12434 15671,12434 Z"/>
    </g>
   </g>
   <g class="com.sun.star.drawing.CustomShape">
    <g id="id20">
     <rect class="BoundingBox" stroke="none" fill="none" x="15584" y="12506" width="175" height="25"/>
     <path fill="rgb(250,250,250)" stroke="none" d="M 15671,12530 L 15584,12530 15584,12506 15758,12506 15758,12530 15671,12530 Z"/>
    </g>
   </g>
   <g class="com.sun.star.drawing.CustomShape">
    <g id="id21">
     <rect class="BoundingBox" stroke="none" fill="none" x="15584" y="12410" width="25" height="121"/>
     <path fill="rgb(250,250,250)" stroke="none" d="M 15596,12530 L 15584,12530 15584,12410 15608,12410 15608,12530 15596,12530 Z"/>
    </g>
   </g>
   <g class="com.sun.star.drawing.CustomShape">
    <g id="id22">
     <rect class="BoundingBox" stroke="none" fill="none" x="15734" y="12410" width="25" height="121"/>
     <path fill="rgb(250,250,250)" stroke="none" d="M 15746,12530 L 15734,12530 15734,12410 15758,12410 15758,12530 15746,12530 Z"/>
    </g>
   </g>
  </g>
  <g class="com.sun.star.drawing.CustomShape">
   <g id="id23">
    <rect class="BoundingBox" stroke="none" fill="none" x="15409" y="12560" width="182" height="152"/>
    <path fill="rgb(250,250,250)" stroke="none" d="M 15434,12560 L 15434,12560 C 15430,12560 15425,12561 15422,12563 15418,12566 15415,12569 15412,12573 15410,12576 15409,12581 15409,12585 L 15409,12685 15409,12686 C 15409,12690 15410,12695 15412,12698 15415,12702 15418,12705 15422,12708 15425,12710 15430,12711 15434,12711 L 15564,12711 15565,12711 C 15569,12711 15574,12710 15577,12708 15581,12705 15584,12702 15587,12698 15589,12695 15590,12690 15590,12686 L 15589,12585 15590,12585 15590,12585 C 15590,12581 15589,12576 15587,12573 15584,12569 15581,12566 15577,12563 15574,12561 15569,12560 15565,12560 L 15434,12560 Z"/>
   </g>
  </g>
  <g class="Group">
   <g class="com.sun.star.drawing.CustomShape">
    <g id="id24">
     <rect class="BoundingBox" stroke="none" fill="none" x="15242" y="12572" width="175" height="25"/>
     <path fill="rgb(250,250,250)" stroke="none" d="M 15329,12596 L 15242,12596 15242,12572 15416,12572 15416,12596 15329,12596 Z"/>
    </g>
   </g>
   <g class="com.sun.star.drawing.CustomShape">
    <g id="id25">
     <rect class="BoundingBox" stroke="none" fill="none" x="15242" y="12668" width="175" height="25"/>
     <path fill="rgb(250,250,250)" stroke="none" d="M 15329,12692 L 15242,12692 15242,12668 15416,12668 15416,12692 15329,12692 Z"/>
    </g>
   </g>
   <g class="com.sun.star.drawing.CustomShape">
    <g id="id26">
     <rect class="BoundingBox" stroke="none" fill="none" x="15242" y="12572" width="25" height="121"/>
     <path fill="rgb(250,250,250)" stroke="none" d="M 15254,12692 L 15242,12692 15242,12572 15266,12572 15266,12692 15254,12692 Z"/>
    </g>
   </g>
   <g class="com.sun.star.drawing.CustomShape">
    <g id="id27">
     <rect class="BoundingBox" stroke="none" fill="none" x="15392" y="12572" width="25" height="121"/>
     <path fill="rgb(250,250,250)" stroke="none" d="M 15404,12692 L 15392,12692 15392,12572 15416,12572 15416,12692 15404,12692 Z"/>
    </g>
   </g>
  </g>
  <g class="Group">
   <g class="com.sun.star.drawing.CustomShape">
    <g id="id28">
     <rect class="BoundingBox" stroke="none" fill="none" x="15584" y="12572" width="175" height="25"/>
     <path fill="rgb(250,250,250)" stroke="none" d="M 15671,12596 L 15584,12596 15584,12572 15758,12572 15758,12596 15671,12596 Z"/>
    </g>
   </g>
   <g class="com.sun.star.drawing.CustomShape">
    <g id="id29">
     <rect class="BoundingBox" stroke="none" fill="none" x="15584" y="12668" width="175" height="25"/>
     <path fill="rgb(250,250,250)" stroke="none" d="M 15671,12692 L 15584,12692 15584,12668 15758,12668 15758,12692 15671,12692 Z"/>
    </g>
   </g>
   <g class="com.sun.star.drawing.CustomShape">
    <g id="id30">
     <rect class="BoundingBox" stroke="none" fill="none" x="15584" y="12572" width="25" height="121"/>
     <path fill="rgb(250,250,250)" stroke="none" d="M 15596,12692 L 15584,12692 15584,12572 15608,12572 15608,12692 15596,12692 Z"/>
    </g>
   </g>
   <g class="com.sun.star.drawing.CustomShape">
    <g id="id31">
     <rect class="BoundingBox" stroke="none" fill="none" x="15734" y="12572" width="25" height="121"/>
     <path fill="rgb(250,250,250)" stroke="none" d="M 15746,12692 L 15734,12692 15734,12572 15758,12572 15758,12692 15746,12692 Z"/>
    </g>
   </g>
  </g>
  <g class="com.sun.star.drawing.ClosedBezierShape">
   <g id="id32">
    <rect class="BoundingBox" stroke="none" fill="none" x="15242" y="12721" width="517" height="80"/>
    <path fill="rgb(250,250,250)" stroke="none" d="M 15734,12800 L 15734,12758 15608,12758 15608,12800 15392,12800 15392,12758 15266,12758 15266,12800 15242,12800 15242,12758 15242,12734 15266,12734 15392,12734 15413,12734 C 15415,12731 15419,12727 15422,12725 15425,12723 15431,12722 15435,12722 L 15565,12722 C 15569,12722 15573,12723 15577,12725 15581,12727 15584,12731 15586,12734 L 15608,12734 15734,12734 15758,12734 15758,12758 15758,12800 15734,12800 Z"/>
   </g>
  </g>
  <g class="com.sun.star.drawing.ClosedBezierShape">
   <g id="id33">
    <rect class="BoundingBox" stroke="none" fill="none" x="15242" y="12200" width="517" height="25"/>
    <path fill="rgb(250,250,250)" stroke="none" d="M 15758,12200 L 15758,12206 15734,12206 15608,12206 15589,12206 C 15588,12208 15587,12209 15587,12211 15584,12215 15581,12219 15577,12221 15573,12223 15569,12224 15565,12224 L 15435,12224 C 15431,12224 15425,12223 15422,12221 15419,12219 15415,12215 15413,12211 15412,12209 15411,12208 15411,12206 L 15392,12206 15266,12206 15242,12206 15242,12200 15758,12200 Z"/>
   </g>
  </g>
  <g class="com.sun.star.drawing.CustomShape">
   <g id="id34">
    <rect class="BoundingBox" stroke="none" fill="none" x="15212" y="12200" width="25" height="601"/>
    <path fill="rgb(250,250,250)" stroke="none" d="M 15224,12800 L 15212,12800 15212,12200 15236,12200 15236,12800 15224,12800 Z"/>
   </g>
  </g>
  <g class="com.sun.star.drawing.CustomShape">
   <g id="id35">
    <rect class="BoundingBox" stroke="none" fill="none" x="15764" y="12200" width="25" height="601"/>
    <path fill="rgb(250,250,250)" stroke="none" d="M 15776,12800 L 15764,12800 15764,12200 15788,12200 15788,12800 15776,12800 Z"/>
   </g>
  </g>
 </g>
</svg>